// Jest Snapshot v1, https://goo.gl/fbAQLP

exports[`asset handler no asset 1`] = `
Object {
  "data": Array [],
  "headers": Object {},
}
`;

exports[`asset handler w/ asset 1`] = `
Object {
  "data": Array [
    Object {
      "data": Array [
        97,
      ],
      "type": "Buffer",
    },
    Object {
      "data": Array [
        98,
      ],
      "type": "Buffer",
    },
    Object {
      "data": Array [
        99,
      ],
      "type": "Buffer",
    },
  ],
  "headers": Object {
    "cache-control": "immutable",
    "content-type": undefined,
  },
}
`;

exports[`asset handler w/ sized asset 1`] = `
Object {
  "data": Array [
    Object {
      "data": Array [
        97,
      ],
      "type": "Buffer",
    },
    Object {
      "data": Array [
        98,
      ],
      "type": "Buffer",
    },
    Object {
      "data": Array [
        99,
      ],
      "type": "Buffer",
    },
  ],
  "headers": Object {
    "cache-control": "immutable",
    "content-length": 3,
    "content-type": undefined,
  },
}
`;
